solid WindMill
facet normal -0.9983947264655019 0.05663894566352811 1.0549091039948544e-14
  outer loop
    vertex 121.76199357462491 142.04892963492748 64.4400000000001
    vertex 121.79210368247031 142.57969115483166 61.740000000000094
    vertex 121.76199357462505 142.04892963492733 61.740000000000094
  endloop
endfacet
facet normal -0.9983947264655019 0.05663894566352811 1.0549091039948544e-14
  outer loop
    vertex 121.79210368247031 142.57969115483166 61.740000000000094
    vertex 121.76199357462491 142.04892963492748 64.4400000000001
    vertex 121.79210368247048 142.57969115483166 64.4400000000001
  endloop
endfacet
facet normal -0.45014659744374313 0.8929546689557207 -1.2831182338365115e-13
  outer loop
    vertex 120.43277723093938 140.50612988882267 61.740000000000094
    vertex 120.90748524445088 140.74543453046996 64.4400000000001
    vertex 120.90748524445097 140.74543453046977 61.740000000000094
  endloop
endfacet
facet normal -0.45014659744374313 0.8929546689557207 -1.2831182338365115e-13
  outer loop
    vertex 120.90748524445088 140.74543453046996 64.4400000000001
    vertex 120.43277723093938 140.50612988882267 61.740000000000094
    vertex 120.4327772309393 140.5061298888229 64.4400000000001
  endloop
endfacet
facet normal 0.6659218988261898 -0.7460214639430437 -2.357491907857178e-14
  outer loop
    vertex 118.6150780149557 144.1118952347937 64.4400000000001
    vertex 118.21848188359874 143.75788122631678 61.740000000000094
    vertex 118.6150780149557 144.1118952347937 61.740000000000094
  endloop
endfacet
facet normal 0.6659218988261898 -0.7460214639430437 -2.357491907857178e-14
  outer loop
    vertex 118.21848188359874 143.75788122631678 61.740000000000094
    vertex 118.6150780149557 144.1118952347937 64.4400000000001
    vertex 118.21848188359874 143.75788122631678 64.4400000000001
  endloop
endfacet
facet normal -0.9497160132914849 0.31311259012969783 -4.9391706400599263e-14
  outer loop
    vertex 121.59553825406586 141.54404644461206 64.4400000000001
    vertex 121.76199357462505 142.04892963492733 61.740000000000094
    vertex 121.59553825406581 141.54404644461195 61.740000000000094
  endloop
endfacet
facet normal -0.9497160132914849 0.31311259012969783 -4.9391706400599263e-14
  outer loop
    vertex 121.76199357462505 142.04892963492733 61.740000000000094
    vertex 121.59553825406586 141.54404644461206 64.4400000000001
    vertex 121.76199357462491 142.04892963492748 64.4400000000001
  endloop
endfacet
facet normal 0.05663894566423224 0.9983947264654618 2.5323020975139246e-14
  outer loop
    vertex 119.38154638199906 140.42795293771047 64.4400000000001
    vertex 119.91230790190303 140.39784282986477 61.740000000000094
    vertex 119.38154638199909 140.42795293771056 61.740000000000094
  endloop
endfacet
facet normal 0.05663894566423224 0.9983947264654618 2.5323020975139246e-14
  outer loop
    vertex 119.91230790190303 140.39784282986477 61.740000000000094
    vertex 119.38154638199906 140.42795293771047 64.4400000000001
    vertex 119.912307901903 140.39784282986474 64.4400000000001
  endloop
endfacet
facet normal 0.9983947264654646 -0.0566389456641821 2.395458445746301e-13
  outer loop
    vertex 117.73045957693678 142.27763861043218 61.740000000000094
    vertex 117.76056968478208 142.80840013033628 64.4400000000001
    vertex 117.73045957693613 142.277638610432 64.4400000000001
  endloop
endfacet
facet normal 0.9983947264654646 -0.0566389456641821 2.395458445746301e-13
  outer loop
    vertex 117.76056968478208 142.80840013033628 64.4400000000001
    vertex 117.73045957693678 142.27763861043218 61.740000000000094
    vertex 117.76056968478231 142.80840013033614 61.740000000000094
  endloop
endfacet
facet normal 0.7460214639430734 0.6659218988261566 -8.35135773232825e-15
  outer loop
    vertex 118.07805127754106 141.28246126788454 61.740000000000094
    vertex 118.43206528601813 140.88586513652749 64.4400000000001
    vertex 118.43206528601812 140.88586513652749 61.740000000000094
  endloop
endfacet
facet normal 0.7460214639430734 0.6659218988261566 -8.35135773232825e-15
  outer loop
    vertex 118.43206528601813 140.88586513652749 64.4400000000001
    vertex 118.07805127754106 141.28246126788454 61.740000000000094
    vertex 118.07805127754105 141.28246126788457 64.4400000000001
  endloop
endfacet
facet normal 0.31311259013068166 0.9497160132911606 1.929209428305985e-14
  outer loop
    vertex 118.87666319168363 140.59440825827025 64.4400000000001
    vertex 119.38154638199909 140.42795293771056 61.740000000000094
    vertex 118.87666319168363 140.59440825827025 61.740000000000094
  endloop
endfacet
facet normal 0.31311259013068166 0.9497160132911606 1.929209428305985e-14
  outer loop
    vertex 119.38154638199909 140.42795293771056 61.740000000000094
    vertex 118.87666319168363 140.59440825827025 64.4400000000001
    vertex 119.38154638199906 140.42795293771047 64.4400000000001
  endloop
endfacet
facet normal -0.056638945664299514 -0.998394726465458 5.396029538831659e-15
  outer loop
    vertex 120.14101687740761 144.42937682755328 64.4400000000001
    vertex 119.61025535750363 144.45948693539904 61.740000000000094
    vertex 120.14101687740761 144.42937682755326 61.740000000000094
  endloop
endfacet
facet normal -0.056638945664299514 -0.998394726465458 5.396029538831659e-15
  outer loop
    vertex 119.61025535750363 144.45948693539904 61.740000000000094
    vertex 120.14101687740761 144.42937682755328 64.4400000000001
    vertex 119.61025535750363 144.45948693539904 64.4400000000001
  endloop
endfacet
facet normal -0.6659218988263444 0.7460214639429056 -1.1217933580379375e-13
  outer loop
    vertex 120.90748524445088 140.74543453046996 64.4400000000001
    vertex 121.30408137580793 141.0994485389469 61.740000000000094
    vertex 120.90748524445097 140.74543453046977 61.740000000000094
  endloop
endfacet
facet normal -0.6659218988263444 0.7460214639429056 -1.1217933580379375e-13
  outer loop
    vertex 121.30408137580793 141.0994485389469 61.740000000000094
    vertex 120.90748524445088 140.74543453046996 64.4400000000001
    vertex 121.30408137580778 141.09944853894703 64.4400000000001
  endloop
endfacet
facet normal -0.8363157232905256 0.5482481290228405 -1.0745427671912468e-13
  outer loop
    vertex 121.30408137580778 141.09944853894703 64.4400000000001
    vertex 121.59553825406581 141.54404644461195 61.740000000000094
    vertex 121.30408137580793 141.0994485389469 61.740000000000094
  endloop
endfacet
facet normal -0.8363157232905256 0.5482481290228405 -1.0745427671912468e-13
  outer loop
    vertex 121.59553825406581 141.54404644461195 61.740000000000094
    vertex 121.30408137580778 141.09944853894703 64.4400000000001
    vertex 121.59553825406586 141.54404644461206 64.4400000000001
  endloop
endfacet
facet normal -0.9790344889562284 -0.20369454934832434 4.5981263927729824e-14
  outer loop
    vertex 121.6838166235122 143.10016048386814 64.4400000000001
    vertex 121.79210368247031 142.57969115483166 61.740000000000094
    vertex 121.79210368247048 142.57969115483166 64.4400000000001
  endloop
endfacet
facet normal -0.9790344889562284 -0.20369454934832434 4.5981263927729824e-14
  outer loop
    vertex 121.79210368247031 142.57969115483166 61.740000000000094
    vertex 121.6838166235122 143.10016048386814 64.4400000000001
    vertex 121.6838166235122 143.10016048386814 61.740000000000094
  endloop
endfacet
facet normal 0.4501465974441615 -0.89295466895551 9.495746979896621e-14
  outer loop
    vertex 119.08978602846663 144.3511998764409 64.4400000000001
    vertex 118.6150780149557 144.1118952347937 61.740000000000094
    vertex 119.08978602846679 144.3511998764406 61.740000000000094
  endloop
endfacet
facet normal 0.4501465974441615 -0.89295466895551 9.495746979896621e-14
  outer loop
    vertex 118.6150780149557 144.1118952347937 61.740000000000094
    vertex 119.08978602846663 144.3511998764409 64.4400000000001
    vertex 118.6150780149557 144.1118952347937 64.4400000000001
  endloop
endfacet
facet normal 0.8929546689560076 0.4501465974431742 -1.363848789683817e-13
  outer loop
    vertex 117.83874663589428 141.75716928139573 61.740000000000094
    vertex 118.07805127754105 141.28246126788457 64.4400000000001
    vertex 118.07805127754106 141.28246126788454 61.740000000000094
  endloop
endfacet
facet normal 0.8929546689560076 0.4501465974431742 -1.363848789683817e-13
  outer loop
    vertex 118.07805127754105 141.28246126788457 64.4400000000001
    vertex 117.83874663589428 141.75716928139573 61.740000000000094
    vertex 117.83874663589488 141.7571692813958 64.4400000000001
  endloop
endfacet
facet normal 0.20369454934835135 -0.9790344889562228 9.1803198874081e-14
  outer loop
    vertex 119.61025535750363 144.45948693539904 64.4400000000001
    vertex 119.08978602846679 144.3511998764406 61.740000000000094
    vertex 119.61025535750363 144.45948693539904 61.740000000000094
  endloop
endfacet
facet normal 0.20369454934835135 -0.9790344889562228 9.1803198874081e-14
  outer loop
    vertex 119.08978602846679 144.3511998764406 61.740000000000094
    vertex 119.61025535750363 144.45948693539904 64.4400000000001
    vertex 119.08978602846663 144.3511998764409 64.4400000000001
  endloop
endfacet
facet normal 0.8363157232917222 -0.5482481290210152 2.5796838161545e-13
  outer loop
    vertex 118.21848188359874 143.75788122631678 61.740000000000094
    vertex 117.92702500534153 143.31328332065144 64.4400000000001
    vertex 117.92702500534205 143.31328332065098 61.740000000000094
  endloop
endfacet
facet normal 0.8363157232917222 -0.5482481290210152 2.5796838161545e-13
  outer loop
    vertex 117.92702500534153 143.31328332065144 64.4400000000001
    vertex 118.21848188359874 143.75788122631678 61.740000000000094
    vertex 118.21848188359874 143.75788122631678 64.4400000000001
  endloop
endfacet
facet normal -0.8929546689559773 -0.4501465974432342 2.740512127924128e-14
  outer loop
    vertex 121.44451198186566 143.57486849737947 64.4400000000001
    vertex 121.6838166235122 143.10016048386814 61.740000000000094
    vertex 121.6838166235122 143.10016048386814 64.4400000000001
  endloop
endfacet
facet normal -0.8929546689559773 -0.4501465974432342 2.740512127924128e-14
  outer loop
    vertex 121.6838166235122 143.10016048386814 61.740000000000094
    vertex 121.44451198186566 143.57486849737947 64.4400000000001
    vertex 121.4445119818657 143.5748684973795 61.740000000000094
  endloop
endfacet
facet normal 0.5482481290214274 0.8363157232914519 -5.397877794471309e-15
  outer loop
    vertex 118.43206528601813 140.88586513652749 64.4400000000001
    vertex 118.87666319168363 140.59440825827025 61.740000000000094
    vertex 118.43206528601812 140.88586513652749 61.740000000000094
  endloop
endfacet
facet normal 0.5482481290214274 0.8363157232914519 -5.397877794471309e-15
  outer loop
    vertex 118.87666319168363 140.59440825827025 61.740000000000094
    vertex 118.43206528601813 140.88586513652749 64.4400000000001
    vertex 118.87666319168363 140.59440825827025 64.4400000000001
  endloop
endfacet
facet normal 0.9790344889562436 0.20369454934825065 3.0665398320777134e-14
  outer loop
    vertex 117.73045957693678 142.27763861043218 61.740000000000094
    vertex 117.83874663589488 141.7571692813958 64.4400000000001
    vertex 117.83874663589428 141.75716928139573 61.740000000000094
  endloop
endfacet
facet normal 0.9790344889562436 0.20369454934825065 3.0665398320777134e-14
  outer loop
    vertex 117.83874663589488 141.7571692813958 64.4400000000001
    vertex 117.73045957693678 142.27763861043218 61.740000000000094
    vertex 117.73045957693613 142.277638610432 64.4400000000001
  endloop
endfacet
facet normal -0.3131125901302255 -0.949716013291311 -4.207901372331621e-14
  outer loop
    vertex 120.64590006772312 144.26292150699365 64.4400000000001
    vertex 120.14101687740761 144.42937682755326 61.740000000000094
    vertex 120.6459000677232 144.26292150699382 61.740000000000094
  endloop
endfacet
facet normal -0.3131125901302255 -0.949716013291311 -4.207901372331621e-14
  outer loop
    vertex 120.14101687740761 144.42937682755326 61.740000000000094
    vertex 120.64590006772312 144.26292150699365 64.4400000000001
    vertex 120.14101687740761 144.42937682755328 64.4400000000001
  endloop
endfacet
facet normal -0.20369454934806558 0.9790344889562821 -5.29997757299441e-14
  outer loop
    vertex 119.912307901903 140.39784282986474 64.4400000000001
    vertex 120.43277723093938 140.50612988882267 61.740000000000094
    vertex 119.91230790190303 140.39784282986477 61.740000000000094
  endloop
endfacet
facet normal -0.20369454934806558 0.9790344889562821 -5.29997757299441e-14
  outer loop
    vertex 120.43277723093938 140.50612988882267 61.740000000000094
    vertex 119.912307901903 140.39784282986474 64.4400000000001
    vertex 120.4327772309393 140.5061298888229 64.4400000000001
  endloop
endfacet
facet normal -0.7460214639426795 -0.6659218988265976 -3.8706139076442995e-14
  outer loop
    vertex 121.09049797338828 143.9714646287364 64.4400000000001
    vertex 121.4445119818657 143.5748684973795 61.740000000000094
    vertex 121.44451198186566 143.57486849737947 64.4400000000001
  endloop
endfacet
facet normal -0.7460214639426795 -0.6659218988265976 -3.8706139076442995e-14
  outer loop
    vertex 121.4445119818657 143.5748684973795 61.740000000000094
    vertex 121.09049797338828 143.9714646287364 64.4400000000001
    vertex 121.09049797338835 143.97146462873647 61.740000000000094
  endloop
endfacet
facet normal 0.9497160132911622 -0.3131125901306768 2.3657186735450914e-13
  outer loop
    vertex 117.92702500534205 143.31328332065098 61.740000000000094
    vertex 117.76056968478208 142.80840013033628 64.4400000000001
    vertex 117.76056968478231 142.80840013033614 61.740000000000094
  endloop
endfacet
facet normal 0.9497160132911622 -0.3131125901306768 2.3657186735450914e-13
  outer loop
    vertex 117.76056968478208 142.80840013033628 64.4400000000001
    vertex 117.92702500534205 143.31328332065098 61.740000000000094
    vertex 117.92702500534153 143.31328332065144 64.4400000000001
  endloop
endfacet
facet normal -0.5482481290218016 -0.8363157232912066 -5.133774915436444e-14
  outer loop
    vertex 121.09049797338828 143.9714646287364 64.4400000000001
    vertex 120.6459000677232 144.26292150699382 61.740000000000094
    vertex 121.09049797338835 143.97146462873647 61.740000000000094
  endloop
endfacet
facet normal -0.5482481290218016 -0.8363157232912066 -5.133774915436444e-14
  outer loop
    vertex 120.6459000677232 144.26292150699382 61.740000000000094
    vertex 121.09049797338828 143.9714646287364 64.4400000000001
    vertex 120.64590006772312 144.26292150699365 64.4400000000001
  endloop
endfacet
facet normal 0.0 0.0 1.0
  outer loop
    vertex 113.70658479364745 140.8063137549956 64.4400000000001
    vertex 113.70658479364745 144.05101601026817 64.4400000000001
    vertex 113.49299821573044 142.4286648826319 64.4400000000001
  endloop
endfacet
facet normal 0.0 0.0 1.0
  outer loop
    vertex 113.70658479364745 144.05101601026817 64.4400000000001
    vertex 113.70658479364745 140.8063137549956 64.4400000000001
    vertex 114.33278895508218 139.29452317564562 64.4400000000001
  endloop
endfacet
facet normal 0.0 0.0 1.0
  outer loop
    vertex 113.70658479364745 144.05101601026817 64.4400000000001
    vertex 114.33278895508218 139.29452317564562 64.4400000000001
    vertex 114.33278895508218 145.56280658961822 64.4400000000001
  endloop
endfacet
facet normal 0.0 0.0 1.0
  outer loop
    vertex 114.33278895508218 145.56280658961822 64.4400000000001
    vertex 114.33278895508218 139.29452317564562 64.4400000000001
    vertex 115.32893592128387 137.99631917421274 64.4400000000001
  endloop
endfacet
facet normal 0.0 0.0 1.0
  outer loop
    vertex 114.33278895508218 145.56280658961822 64.4400000000001
    vertex 115.32893592128387 137.99631917421274 64.4400000000001
    vertex 115.32893592128386 146.861010591051 64.4400000000001
  endloop
endfacet
facet normal 0.0 0.0 1.0
  outer loop
    vertex 115.32893592128386 146.861010591051 64.4400000000001
    vertex 115.32893592128387 137.99631917421274 64.4400000000001
    vertex 116.62713992271705 147.8571575572529 64.4400000000001
  endloop
endfacet
facet normal 0.0 0.0 1.0
  outer loop
    vertex 116.62713992271705 147.8571575572529 64.4400000000001
    vertex 115.32893592128387 137.99631917421274 64.4400000000001
    vertex 116.62713992271705 137.000172208011 64.4400000000001
  endloop
endfacet
facet normal 0.0 0.0 1.0
  outer loop
    vertex 116.62713992271705 147.8571575572529 64.4400000000001
    vertex 116.62713992271705 137.000172208011 64.4400000000001
    vertex 118.1389305020667 136.37396804657635 64.4400000000001
  endloop
endfacet
facet normal 0.0 0.0 1.0
  outer loop
    vertex 116.62713992271705 147.8571575572529 64.4400000000001
    vertex 118.1389305020667 136.37396804657635 64.4400000000001
    vertex 117.73045957693613 142.277638610432 64.4400000000001
  endloop
endfacet
facet normal 0.0 0.0 1.0
  outer loop
    vertex 117.73045957693613 142.277638610432 64.4400000000001
    vertex 118.1389305020667 136.37396804657635 64.4400000000001
    vertex 117.83874663589488 141.7571692813958 64.4400000000001
  endloop
endfacet
facet normal 0.0 0.0 1.0
  outer loop
    vertex 117.83874663589488 141.7571692813958 64.4400000000001
    vertex 118.1389305020667 136.37396804657635 64.4400000000001
    vertex 118.07805127754105 141.28246126788457 64.4400000000001
  endloop
endfacet
facet normal 0.0 0.0 1.0
  outer loop
    vertex 118.07805127754105 141.28246126788457 64.4400000000001
    vertex 118.1389305020667 136.37396804657635 64.4400000000001
    vertex 118.43206528601813 140.88586513652749 64.4400000000001
  endloop
endfacet
facet normal 0.0 0.0 1.0
  outer loop
    vertex 118.43206528601813 140.88586513652749 64.4400000000001
    vertex 118.1389305020667 136.37396804657635 64.4400000000001
    vertex 119.76128162970306 136.16038146865935 64.4400000000001
  endloop
endfacet
facet normal 0.0 0.0 1.0
  outer loop
    vertex 118.43206528601813 140.88586513652749 64.4400000000001
    vertex 119.76128162970306 136.16038146865935 64.4400000000001
    vertex 118.87666319168363 140.59440825827025 64.4400000000001
  endloop
endfacet
facet normal 0.0 0.0 1.0
  outer loop
    vertex 118.87666319168363 140.59440825827025 64.4400000000001
    vertex 119.76128162970306 136.16038146865935 64.4400000000001
    vertex 119.38154638199906 140.42795293771047 64.4400000000001
  endloop
endfacet
facet normal 0.0 0.0 1.0
  outer loop
    vertex 119.38154638199906 140.42795293771047 64.4400000000001
    vertex 119.76128162970306 136.16038146865935 64.4400000000001
    vertex 119.912307901903 140.39784282986474 64.4400000000001
  endloop
endfacet
facet normal 0.0 0.0 1.0
  outer loop
    vertex 119.912307901903 140.39784282986474 64.4400000000001
    vertex 119.76128162970306 136.16038146865935 64.4400000000001
    vertex 121.38363275733967 136.37396804657635 64.4400000000001
  endloop
endfacet
facet normal 0.0 0.0 1.0
  outer loop
    vertex 119.912307901903 140.39784282986474 64.4400000000001
    vertex 121.38363275733967 136.37396804657635 64.4400000000001
    vertex 120.4327772309393 140.5061298888229 64.4400000000001
  endloop
endfacet
facet normal 0.0 0.0 1.0
  outer loop
    vertex 120.4327772309393 140.5061298888229 64.4400000000001
    vertex 121.38363275733967 136.37396804657635 64.4400000000001
    vertex 120.90748524445088 140.74543453046996 64.4400000000001
  endloop
endfacet
facet normal 0.0 0.0 1.0
  outer loop
    vertex 120.90748524445088 140.74543453046996 64.4400000000001
    vertex 121.38363275733967 136.37396804657635 64.4400000000001
    vertex 121.30408137580778 141.09944853894703 64.4400000000001
  endloop
endfacet
facet normal 0.0 0.0 1.0
  outer loop
    vertex 121.30408137580778 141.09944853894703 64.4400000000001
    vertex 121.38363275733967 136.37396804657635 64.4400000000001
    vertex 121.59553825406586 141.54404644461206 64.4400000000001
  endloop
endfacet
facet normal 0.0 0.0 1.0
  outer loop
    vertex 121.59553825406586 141.54404644461206 64.4400000000001
    vertex 121.38363275733967 136.37396804657635 64.4400000000001
    vertex 122.89542333668928 137.000172208011 64.4400000000001
  endloop
endfacet
facet normal 0.0 0.0 1.0
  outer loop
    vertex 121.59553825406586 141.54404644461206 64.4400000000001
    vertex 122.89542333668928 137.000172208011 64.4400000000001
    vertex 121.76199357462491 142.04892963492748 64.4400000000001
  endloop
endfacet
facet normal 0.0 0.0 1.0
  outer loop
    vertex 121.76199357462491 142.04892963492748 64.4400000000001
    vertex 122.89542333668928 137.000172208011 64.4400000000001
    vertex 121.79210368247048 142.57969115483166 64.4400000000001
  endloop
endfacet
facet normal 0.0 0.0 1.0
  outer loop
    vertex 121.79210368247048 142.57969115483166 64.4400000000001
    vertex 122.89542333668928 137.000172208011 64.4400000000001
    vertex 122.89542333668923 147.8571575572528 64.4400000000001
  endloop
endfacet
facet normal 0.0 0.0 1.0
  outer loop
    vertex 122.89542333668923 147.8571575572528 64.4400000000001
    vertex 122.89542333668928 137.000172208011 64.4400000000001
    vertex 124.1936273381222 146.86101059105104 64.4400000000001
  endloop
endfacet
facet normal 0.0 0.0 1.0
  outer loop
    vertex 124.1936273381222 146.86101059105104 64.4400000000001
    vertex 122.89542333668928 137.000172208011 64.4400000000001
    vertex 124.19362733812213 137.99631917421266 64.4400000000001
  endloop
endfacet
facet normal 0.0 0.0 1.0
  outer loop
    vertex 124.1936273381222 146.86101059105104 64.4400000000001
    vertex 124.19362733812213 137.99631917421266 64.4400000000001
    vertex 125.1897743043239 139.29452317564562 64.4400000000001
  endloop
endfacet
facet normal 0.0 0.0 1.0
  outer loop
    vertex 124.1936273381222 146.86101059105104 64.4400000000001
    vertex 125.1897743043239 139.29452317564562 64.4400000000001
    vertex 125.1897743043239 145.56280658961822 64.4400000000001
  endloop
endfacet
facet normal 0.0 0.0 1.0
  outer loop
    vertex 125.1897743043239 145.56280658961822 64.4400000000001
    vertex 125.1897743043239 139.29452317564562 64.4400000000001
    vertex 125.81597846575865 140.8063137549958 64.4400000000001
  endloop
endfacet
facet normal 0.0 0.0 1.0
  outer loop
    vertex 125.1897743043239 145.56280658961822 64.4400000000001
    vertex 125.81597846575865 140.8063137549958 64.4400000000001
    vertex 125.81597846575863 144.05101601026814 64.4400000000001
  endloop
endfacet
facet normal 0.0 0.0 1.0
  outer loop
    vertex 125.81597846575863 144.05101601026814 64.4400000000001
    vertex 125.81597846575865 140.8063137549958 64.4400000000001
    vertex 126.02956504367586 142.42866488263184 64.4400000000001
  endloop
endfacet
facet normal 0.0 0.0 1.0
  outer loop
    vertex 116.62713992271705 147.8571575572529 64.4400000000001
    vertex 117.76056968478208 142.80840013033628 64.4400000000001
    vertex 118.13893050206659 148.48336171868738 64.4400000000001
  endloop
endfacet
facet normal 0.0 0.0 1.0
  outer loop
    vertex 117.76056968478208 142.80840013033628 64.4400000000001
    vertex 116.62713992271705 147.8571575572529 64.4400000000001
    vertex 117.73045957693613 142.277638610432 64.4400000000001
  endloop
endfacet
facet normal 0.0 0.0 1.0
  outer loop
    vertex 118.13893050206659 148.48336171868738 64.4400000000001
    vertex 117.76056968478208 142.80840013033628 64.4400000000001
    vertex 117.92702500534153 143.31328332065144 64.4400000000001
  endloop
endfacet
facet normal 0.0 0.0 1.0
  outer loop
    vertex 118.13893050206659 148.48336171868738 64.4400000000001
    vertex 117.92702500534153 143.31328332065144 64.4400000000001
    vertex 118.21848188359874 143.75788122631678 64.4400000000001
  endloop
endfacet
facet normal 0.0 0.0 1.0
  outer loop
    vertex 118.13893050206659 148.48336171868738 64.4400000000001
    vertex 118.21848188359874 143.75788122631678 64.4400000000001
    vertex 119.76128162970308 148.6969482966045 64.4400000000001
  endloop
endfacet
facet normal 0.0 0.0 1.0
  outer loop
    vertex 119.76128162970308 148.6969482966045 64.4400000000001
    vertex 118.21848188359874 143.75788122631678 64.4400000000001
    vertex 118.6150780149557 144.1118952347937 64.4400000000001
  endloop
endfacet
facet normal 0.0 0.0 1.0
  outer loop
    vertex 119.76128162970308 148.6969482966045 64.4400000000001
    vertex 118.6150780149557 144.1118952347937 64.4400000000001
    vertex 119.08978602846663 144.3511998764409 64.4400000000001
  endloop
endfacet
facet normal 0.0 0.0 1.0
  outer loop
    vertex 119.76128162970308 148.6969482966045 64.4400000000001
    vertex 119.08978602846663 144.3511998764409 64.4400000000001
    vertex 119.61025535750363 144.45948693539904 64.4400000000001
  endloop
endfacet
facet normal 0.0 0.0 1.0
  outer loop
    vertex 119.76128162970308 148.6969482966045 64.4400000000001
    vertex 119.61025535750363 144.45948693539904 64.4400000000001
    vertex 120.14101687740761 144.42937682755328 64.4400000000001
  endloop
endfacet
facet normal 0.0 0.0 1.0
  outer loop
    vertex 119.76128162970308 148.6969482966045 64.4400000000001
    vertex 120.14101687740761 144.42937682755328 64.4400000000001
    vertex 121.38363275733971 148.48336171868738 64.4400000000001
  endloop
endfacet
facet normal 0.0 0.0 1.0
  outer loop
    vertex 121.38363275733971 148.48336171868738 64.4400000000001
    vertex 120.14101687740761 144.42937682755328 64.4400000000001
    vertex 120.64590006772312 144.26292150699365 64.4400000000001
  endloop
endfacet
facet normal 0.0 0.0 1.0
  outer loop
    vertex 121.38363275733971 148.48336171868738 64.4400000000001
    vertex 120.64590006772312 144.26292150699365 64.4400000000001
    vertex 121.09049797338828 143.9714646287364 64.4400000000001
  endloop
endfacet
facet normal 0.0 0.0 1.0
  outer loop
    vertex 121.38363275733971 148.48336171868738 64.4400000000001
    vertex 121.09049797338828 143.9714646287364 64.4400000000001
    vertex 121.44451198186566 143.57486849737947 64.4400000000001
  endloop
endfacet
facet normal 0.0 0.0 1.0
  outer loop
    vertex 121.38363275733971 148.48336171868738 64.4400000000001
    vertex 121.44451198186566 143.57486849737947 64.4400000000001
    vertex 122.89542333668923 147.8571575572528 64.4400000000001
  endloop
endfacet
facet normal 0.0 0.0 1.0
  outer loop
    vertex 122.89542333668923 147.8571575572528 64.4400000000001
    vertex 121.44451198186566 143.57486849737947 64.4400000000001
    vertex 121.6838166235122 143.10016048386814 64.4400000000001
  endloop
endfacet
facet normal 0.0 0.0 1.0
  outer loop
    vertex 122.89542333668923 147.8571575572528 64.4400000000001
    vertex 121.6838166235122 143.10016048386814 64.4400000000001
    vertex 121.79210368247048 142.57969115483166 64.4400000000001
  endloop
endfacet
facet normal -0.7933533402912395 0.6087614290087152 0.0
  outer loop
    vertex 115.32893592128386 146.861010591051 64.4400000000001
    vertex 114.33278895508218 145.56280658961822 61.74000000000305
    vertex 114.33278895508218 145.56280658961822 64.4400000000001
  endloop
endfacet
facet normal -0.7933533402912395 0.6087614290087152 0.0
  outer loop
    vertex 114.33278895508218 145.56280658961822 61.74000000000305
    vertex 115.32893592128386 146.861010591051 64.4400000000001
    vertex 115.32893592128386 146.861010591051 61.74000000000305
  endloop
endfacet
facet normal -0.6087614290086805 0.7933533402912661 0.0
  outer loop
    vertex 115.32893592128386 146.861010591051 64.4400000000001
    vertex 116.62713992271705 147.8571575572529 61.74000000000305
    vertex 115.32893592128386 146.861010591051 61.74000000000305
  endloop
endfacet
facet normal -0.6087614290086805 0.7933533402912661 0.0
  outer loop
    vertex 116.62713992271705 147.8571575572529 61.74000000000305
    vertex 115.32893592128386 146.861010591051 64.4400000000001
    vertex 116.62713992271705 147.8571575572529 64.4400000000001
  endloop
endfacet
facet normal -0.3826834323651073 0.9238795325112796 0.0
  outer loop
    vertex 116.62713992271705 147.8571575572529 64.4400000000001
    vertex 118.13893050206659 148.48336171868738 61.74000000000305
    vertex 116.62713992271705 147.8571575572529 61.74000000000305
  endloop
endfacet
facet normal -0.3826834323651073 0.9238795325112796 0.0
  outer loop
    vertex 118.13893050206659 148.48336171868738 61.74000000000305
    vertex 116.62713992271705 147.8571575572529 64.4400000000001
    vertex 118.13893050206659 148.48336171868738 64.4400000000001
  endloop
endfacet
facet normal -0.13052619222006903 0.9914448613738082 0.0
  outer loop
    vertex 118.13893050206659 148.48336171868738 64.4400000000001
    vertex 119.76128162970308 148.6969482966045 61.74000000000305
    vertex 118.13893050206659 148.48336171868738 61.74000000000305
  endloop
endfacet
facet normal -0.13052619222006903 0.9914448613738082 0.0
  outer loop
    vertex 119.76128162970308 148.6969482966045 61.74000000000305
    vertex 118.13893050206659 148.48336171868738 64.4400000000001
    vertex 119.76128162970308 148.6969482966045 64.4400000000001
  endloop
endfacet
facet normal 0.1305261922200584 0.9914448613738095 0.0
  outer loop
    vertex 119.76128162970308 148.6969482966045 64.4400000000001
    vertex 121.38363275733971 148.48336171868738 61.74000000000305
    vertex 119.76128162970308 148.6969482966045 61.74000000000305
  endloop
endfacet
facet normal 0.1305261922200584 0.9914448613738095 0.0
  outer loop
    vertex 121.38363275733971 148.48336171868738 61.74000000000305
    vertex 119.76128162970308 148.6969482966045 64.4400000000001
    vertex 121.38363275733971 148.48336171868738 64.4400000000001
  endloop
endfacet
facet normal 0.38268343236516345 0.9238795325112562 0.0
  outer loop
    vertex 121.38363275733971 148.48336171868738 64.4400000000001
    vertex 122.89542333668923 147.8571575572528 61.74000000000305
    vertex 121.38363275733971 148.48336171868738 61.74000000000305
  endloop
endfacet
facet normal 0.38268343236516345 0.9238795325112562 0.0
  outer loop
    vertex 122.89542333668923 147.8571575572528 61.74000000000305
    vertex 121.38363275733971 148.48336171868738 64.4400000000001
    vertex 122.89542333668923 147.8571575572528 64.4400000000001
  endloop
endfacet
facet normal 0.6087614290087036 0.7933533402912484 0.0
  outer loop
    vertex 122.89542333668923 147.8571575572528 64.4400000000001
    vertex 124.1936273381222 146.86101059105104 61.74000000000305
    vertex 122.89542333668923 147.8571575572528 61.74000000000305
  endloop
endfacet
facet normal 0.6087614290087036 0.7933533402912484 0.0
  outer loop
    vertex 124.1936273381222 146.86101059105104 61.74000000000305
    vertex 122.89542333668923 147.8571575572528 64.4400000000001
    vertex 124.1936273381222 146.86101059105104 64.4400000000001
  endloop
endfacet
facet normal 0.7933533402912378 0.6087614290087174 0.0
  outer loop
    vertex 124.1936273381222 146.86101059105104 61.74000000000305
    vertex 125.1897743043239 145.56280658961822 64.4400000000001
    vertex 125.1897743043239 145.56280658961822 61.74000000000305
  endloop
endfacet
facet normal 0.7933533402912378 0.6087614290087174 0.0
  outer loop
    vertex 125.1897743043239 145.56280658961822 64.4400000000001
    vertex 124.1936273381222 146.86101059105104 61.74000000000305
    vertex 124.1936273381222 146.86101059105104 64.4400000000001
  endloop
endfacet
facet normal 0.9238795325112696 0.38268343236513125 0.0
  outer loop
    vertex 125.1897743043239 145.56280658961822 61.74000000000305
    vertex 125.81597846575863 144.05101601026814 64.4400000000001
    vertex 125.81597846575863 144.05101601026814 61.74000000000305
  endloop
endfacet
facet normal 0.9238795325112696 0.38268343236513125 0.0
  outer loop
    vertex 125.81597846575863 144.05101601026814 64.4400000000001
    vertex 125.1897743043239 145.56280658961822 61.74000000000305
    vertex 125.1897743043239 145.56280658961822 64.4400000000001
  endloop
endfacet
facet normal 0.9914448613737955 0.1305261922201654 0.0
  outer loop
    vertex 125.81597846575863 144.05101601026814 61.74000000000305
    vertex 126.02956504367586 142.42866488263184 64.4400000000001
    vertex 126.02956504367586 142.42866488263184 61.74000000000305
  endloop
endfacet
facet normal 0.9914448613737955 0.1305261922201654 0.0
  outer loop
    vertex 126.02956504367586 142.42866488263184 64.4400000000001
    vertex 125.81597846575863 144.05101601026814 61.74000000000305
    vertex 125.81597846575863 144.05101601026814 64.4400000000001
  endloop
endfacet
facet normal 0.9914448613737946 -0.1305261922201732 0.0
  outer loop
    vertex 126.02956504367586 142.42866488263184 61.74000000000305
    vertex 125.81597846575865 140.8063137549958 64.4400000000001
    vertex 125.81597846575865 140.8063137549958 61.74000000000305
  endloop
endfacet
facet normal 0.9914448613737946 -0.1305261922201732 0.0
  outer loop
    vertex 125.81597846575865 140.8063137549958 64.4400000000001
    vertex 126.02956504367586 142.42866488263184 61.74000000000305
    vertex 126.02956504367586 142.42866488263184 64.4400000000001
  endloop
endfacet
facet normal 0.9238795325112727 -0.3826834323651236 0.0
  outer loop
    vertex 125.81597846575865 140.8063137549958 61.74000000000305
    vertex 125.1897743043239 139.29452317564562 64.4400000000001
    vertex 125.1897743043239 139.29452317564562 61.74000000000305
  endloop
endfacet
facet normal 0.9238795325112727 -0.3826834323651236 0.0
  outer loop
    vertex 125.1897743043239 139.29452317564562 64.4400000000001
    vertex 125.81597846575865 140.8063137549958 61.74000000000305
    vertex 125.81597846575865 140.8063137549958 64.4400000000001
  endloop
endfacet
facet normal 0.7933533402912433 -0.6087614290087101 0.0
  outer loop
    vertex 125.1897743043239 139.29452317564562 61.74000000000305
    vertex 124.19362733812213 137.99631917421266 64.4400000000001
    vertex 124.19362733812213 137.99631917421266 61.74000000000305
  endloop
endfacet
facet normal 0.7933533402912433 -0.6087614290087101 0.0
  outer loop
    vertex 124.19362733812213 137.99631917421266 64.4400000000001
    vertex 125.1897743043239 139.29452317564562 61.74000000000305
    vertex 125.1897743043239 139.29452317564562 64.4400000000001
  endloop
endfacet
facet normal 0.6087614290087152 -0.7933533402912395 0.0
  outer loop
    vertex 124.19362733812213 137.99631917421266 64.4400000000001
    vertex 122.89542333668928 137.000172208011 61.74000000000305
    vertex 124.19362733812213 137.99631917421266 61.74000000000305
  endloop
endfacet
facet normal 0.6087614290087152 -0.7933533402912395 0.0
  outer loop
    vertex 122.89542333668928 137.000172208011 61.74000000000305
    vertex 124.19362733812213 137.99631917421266 64.4400000000001
    vertex 122.89542333668928 137.000172208011 64.4400000000001
  endloop
endfacet
facet normal 0.3826834323651694 -0.9238795325112538 0.0
  outer loop
    vertex 122.89542333668928 137.000172208011 64.4400000000001
    vertex 121.38363275733967 136.37396804657635 61.74000000000305
    vertex 122.89542333668928 137.000172208011 61.74000000000305
  endloop
endfacet
facet normal 0.3826834323651694 -0.9238795325112538 0.0
  outer loop
    vertex 121.38363275733967 136.37396804657635 61.74000000000305
    vertex 122.89542333668928 137.000172208011 64.4400000000001
    vertex 121.38363275733967 136.37396804657635 64.4400000000001
  endloop
endfacet
facet normal 0.13052619222000653 -0.9914448613738165 0.0
  outer loop
    vertex 121.38363275733967 136.37396804657635 64.4400000000001
    vertex 119.76128162970306 136.16038146865935 61.74000000000305
    vertex 121.38363275733967 136.37396804657635 61.74000000000305
  endloop
endfacet
facet normal 0.13052619222000653 -0.9914448613738165 0.0
  outer loop
    vertex 119.76128162970306 136.16038146865935 61.74000000000305
    vertex 121.38363275733967 136.37396804657635 64.4400000000001
    vertex 119.76128162970306 136.16038146865935 64.4400000000001
  endloop
endfacet
facet normal -0.13052619222002593 -0.9914448613738138 0.0
  outer loop
    vertex 119.76128162970306 136.16038146865935 64.4400000000001
    vertex 118.1389305020667 136.37396804657635 61.74000000000305
    vertex 119.76128162970306 136.16038146865935 61.74000000000305
  endloop
endfacet
facet normal -0.13052619222002593 -0.9914448613738138 0.0
  outer loop
    vertex 118.1389305020667 136.37396804657635 61.74000000000305
    vertex 119.76128162970306 136.16038146865935 64.4400000000001
    vertex 118.1389305020667 136.37396804657635 64.4400000000001
  endloop
endfacet
facet normal -0.3826834323651598 -0.9238795325112579 0.0
  outer loop
    vertex 118.1389305020667 136.37396804657635 64.4400000000001
    vertex 116.62713992271705 137.000172208011 61.74000000000305
    vertex 118.1389305020667 136.37396804657635 61.74000000000305
  endloop
endfacet
facet normal -0.3826834323651598 -0.9238795325112579 0.0
  outer loop
    vertex 116.62713992271705 137.000172208011 61.74000000000305
    vertex 118.1389305020667 136.37396804657635 64.4400000000001
    vertex 116.62713992271705 137.000172208011 64.4400000000001
  endloop
endfacet
facet normal -0.6087614290086422 -0.7933533402912955 0.0
  outer loop
    vertex 116.62713992271705 137.000172208011 64.4400000000001
    vertex 115.32893592128387 137.99631917421274 61.74000000000305
    vertex 116.62713992271705 137.000172208011 61.74000000000305
  endloop
endfacet
facet normal -0.6087614290086422 -0.7933533402912955 0.0
  outer loop
    vertex 115.32893592128387 137.99631917421274 61.74000000000305
    vertex 116.62713992271705 137.000172208011 64.4400000000001
    vertex 115.32893592128387 137.99631917421274 64.4400000000001
  endloop
endfacet
facet normal -0.7933533402912479 -0.608761429008704 0.0
  outer loop
    vertex 114.33278895508218 139.29452317564562 64.4400000000001
    vertex 115.32893592128387 137.99631917421274 61.74000000000305
    vertex 115.32893592128387 137.99631917421274 64.4400000000001
  endloop
endfacet
facet normal -0.7933533402912479 -0.608761429008704 0.0
  outer loop
    vertex 115.32893592128387 137.99631917421274 61.74000000000305
    vertex 114.33278895508218 139.29452317564562 64.4400000000001
    vertex 114.33278895508218 139.29452317564562 61.74000000000305
  endloop
endfacet
facet normal -0.9238795325112712 -0.38268343236512725 0.0
  outer loop
    vertex 113.70658479364745 140.8063137549956 64.4400000000001
    vertex 114.33278895508218 139.29452317564562 61.74000000000305
    vertex 114.33278895508218 139.29452317564562 64.4400000000001
  endloop
endfacet
facet normal -0.9238795325112712 -0.38268343236512725 0.0
  outer loop
    vertex 114.33278895508218 139.29452317564562 61.74000000000305
    vertex 113.70658479364745 140.8063137549956 64.4400000000001
    vertex 113.70658479364745 140.8063137549956 61.74000000000305
  endloop
endfacet
facet normal -0.991444861373813 -0.130526192220033 0.0
  outer loop
    vertex 113.49299821573044 142.4286648826319 64.4400000000001
    vertex 113.70658479364745 140.8063137549956 61.74000000000305
    vertex 113.70658479364745 140.8063137549956 64.4400000000001
  endloop
endfacet
facet normal -0.991444861373813 -0.130526192220033 0.0
  outer loop
    vertex 113.70658479364745 140.8063137549956 61.74000000000305
    vertex 113.49299821573044 142.4286648826319 64.4400000000001
    vertex 113.49299821573044 142.4286648826319 61.74000000000305
  endloop
endfacet
facet normal -0.9914448613738133 0.13052619222003126 0.0
  outer loop
    vertex 113.70658479364745 144.05101601026817 64.4400000000001
    vertex 113.49299821573044 142.4286648826319 61.74000000000305
    vertex 113.49299821573044 142.4286648826319 64.4400000000001
  endloop
endfacet
facet normal -0.9914448613738133 0.13052619222003126 0.0
  outer loop
    vertex 113.49299821573044 142.4286648826319 61.74000000000305
    vertex 113.70658479364745 144.05101601026817 64.4400000000001
    vertex 113.70658479364745 144.05101601026817 61.74000000000305
  endloop
endfacet
facet normal -0.9238795325112734 0.3826834323651225 0.0
  outer loop
    vertex 114.33278895508218 145.56280658961822 64.4400000000001
    vertex 113.70658479364745 144.05101601026817 61.74000000000305
    vertex 113.70658479364745 144.05101601026817 64.4400000000001
  endloop
endfacet
facet normal -0.9238795325112734 0.3826834323651225 0.0
  outer loop
    vertex 113.70658479364745 144.05101601026817 61.74000000000305
    vertex 114.33278895508218 145.56280658961822 64.4400000000001
    vertex 114.33278895508218 145.56280658961822 61.74000000000305
  endloop
endfacet
endsolid WindMill
